Wave function anomalies
…
df_train %>% dim()

## [1] 1799  113

df_test %>% dim()

## [1] 601 113

Basic EDA

df_train %>% dlookr::diagnose()

## # A tibble: 113 x 6
##    variables types   missing_count missing_percent unique_count unique_rate
##    <chr>     <chr>           <int>           <dbl>        <int>       <dbl>
##  1 V1        numeric             0               0         1767       0.982
##  2 V2        numeric             0               0         1795       0.998
##  3 V3        numeric             0               0         1796       0.998
##  4 V4        numeric             0               0         1796       0.998
##  5 V5        numeric             0               0         1796       0.998
##  6 V6        numeric             0               0         1796       0.998
##  7 V7        numeric             0               0         1795       0.998
##  8 V8        numeric             0               0         1795       0.998
##  9 V9        numeric             0               0         1795       0.998
## 10 V10       numeric             0               0         1795       0.998
## # ... with 103 more rows

df_train %>% dlookr::describe()

## # A tibble: 112 x 26
##    variable     n    na     mean     sd se_mean     IQR skewness kurtosis    p00
##    <chr>    <int> <int>    <dbl>  <dbl>   <dbl>   <dbl>    <dbl>    <dbl>  <dbl>
##  1 V1        1799     0  1.44e-1 0.638  1.50e-2 1.16e+0  -0.160     -1.21 -1    
##  2 V2        1799     0 -2.92e-3 0.130  3.06e-3 6.05e-2   0.203      7.45 -0.848
##  3 V3        1799     0 -2.14e-3 0.0534 1.26e-3 4.15e-3  -1.18      18.6  -0.498
##  4 V4        1799     0  1.21e-3 0.0358 8.44e-4 8.16e-4   0.404     43.8  -0.391
##  5 V5        1799     0  7.79e-4 0.0239 5.64e-4 6.17e-5   0.677     33.7  -0.269
##  6 V6        1799     0 -5.52e-4 0.0190 4.49e-4 8.05e-6  -1.02      39.5  -0.217
##  7 V7        1799     0  1.30e-4 0.0129 3.03e-4 2.08e-7   0.855     33.6  -0.130
##  8 V8        1799     0 -1.04e-3 0.140  3.31e-3 5.74e-2  -0.0633     6.99 -0.745
##  9 V9        1799     0 -5.81e-4 0.0451 1.06e-3 2.24e-3  -0.0432    11.2  -0.271
## 10 V10       1799     0 -1.65e-4 0.0311 7.33e-4 2.49e-4  -0.338     14.1  -0.206
## # ... with 102 more rows, and 16 more variables: p01 <dbl>, p05 <dbl>,
## #   p10 <dbl>, p20 <dbl>, p25 <dbl>, p30 <dbl>, p40 <dbl>, p50 <dbl>,
## #   p60 <dbl>, p70 <dbl>, p75 <dbl>, p80 <dbl>, p90 <dbl>, p95 <dbl>,
## #   p99 <dbl>, p100 <dbl>

df_train %>% dlookr::diagnose_numeric() 

## # A tibble: 112 x 10
##    variables    min            Q1      mean    median       Q3   max  zero minus
##    <chr>      <dbl>         <dbl>     <dbl>     <dbl>    <dbl> <dbl> <int> <int>
##  1 V1        -1     -0.383         0.144     1.53e- 1  7.73e-1 1         0   707
##  2 V2        -0.848 -0.0326       -0.00292   1.16e-11  2.79e-2 0.879     0   893
##  3 V3        -0.498 -0.00196      -0.00214  -1.51e-17  2.19e-3 0.435     0   908
##  4 V4        -0.391 -0.000161      0.00121   3.91e-17  6.55e-4 0.451     0   867
##  5 V5        -0.269 -0.0000169     0.000779 -1.25e-17  4.48e-5 0.251     0   918
##  6 V6        -0.217 -0.00000710   -0.000552  4.12e-18  9.43e-7 0.189     0   891
##  7 V7        -0.130 -0.0000000999  0.000130  1.13e-18  1.08e-7 0.139     0   896
##  8 V8        -0.745 -0.0303       -0.00104  -1.22e-17  2.72e-2 0.707     0   918
##  9 V9        -0.271 -0.00108      -0.000581  1.91e-19  1.16e-3 0.306     0   897
## 10 V10       -0.206 -0.000107     -0.000165  3.26e-19  1.42e-4 0.189     0   897
## # ... with 102 more rows, and 1 more variable: outlier <int>
…
## i Racing will maximize the roc_auc metric.

## i Resamples are analyzed in a random order.
## i Fold5: 23 eliminated;  2 candidates remain.
## i Fold1: All but one parameter combination were eliminated.

Explore results

(number_of_all_models <- nrow(collect_metrics(xgb_rs, summarize = FALSE)))

## [1] 78

collect_metrics(xgb_rs)

## # A tibble: 25 x 13
##     mtry trees min_n tree_depth learn_rate loss_reduction sample_size .metric
##    <int> <int> <int>      <int>      <dbl>          <dbl>       <dbl> <chr>  
##  1     2  1096     4          3    0.00669       5.45e- 1       0.441 roc_auc
##  2     4  1427     6         13    0.148         2.48e- 8       0.128 roc_auc
##  3     4   537    34         15    0.0595        2.74e- 9       0.267 roc_auc
##  4     6   349    25         11    0.00306       2.83e+ 1       0.466 roc_auc
##  5     8  1954    38          8    0.0239        3.75e- 7       0.844 roc_auc
##  6     9  1638    30         10    0.0369        5.92e-10       0.733 roc_auc
##  7    11   300    24          6    0.00349       4.21e- 5       0.408 roc_auc
##  8    12   232    10          7    0.106         6.21e- 7       0.924 roc_auc
##  9    14  1692    33          3    0.00447       7.83e- 4       0.809 roc_auc
## 10    15   156    22          2    0.0834        1.13e- 4       0.155 roc_auc
## # ... with 15 more rows, and 5 more variables: .estimator <chr>, mean <dbl>,
## #   n <int>, std_err <dbl>, .config <chr>
…
